<?xml version="1.0" encoding="UTF-8"?>
<!DOCTYPE svg PUBLIC "-//W3C//DTD SVG 1.1//EN" "http://www.w3.org/Graphics/SVG/1.1/DTD/svg11.dtd">
<!-- Creator: CorelDRAW 2017 -->
<svg xmlns="http://www.w3.org/2000/svg" xml:space="preserve" width="165mm" height="297mm" version="1.1" style="shape-rendering:geometricPrecision; text-rendering:geometricPrecision; image-rendering:optimizeQuality; fill-rule:evenodd; clip-rule:evenodd"
viewBox="0 0 16500 29700"
 xmlns:xlink="http://www.w3.org/1999/xlink">
 <defs>
  <style type="text/css">
   <![CDATA[
    .str4 {stroke:#4A4A4A;stroke-width:75}
    .str0 {stroke:#4A4A4A;stroke-width:175}
    .str3 {stroke:#727272;stroke-width:65}
    .str1 {stroke:#4A4A4A;stroke-width:60}
    .str2 {stroke:#4A4A4A;stroke-width:50}
    .fil0 {fill:none}
   ]]>
  </style>
 </defs>
 <g id="Слой_x0020_1">
  <metadata id="CorelCorpID_0Corel-Layer"/>
  <rect class="fil0 str0" x="1339" y="1198" width="13822" height="27305" rx="1921" ry="1894"/>
  <rect class="fil0 str1" x="10660" y="934" width="2270" height="264" rx="91" ry="76"/>
  <rect class="fil0 str1" transform="matrix(1.32427E-14 -0.602309 0.500016 1.59519E-14 1142.97 4811.22)" width="2270" height="312" rx="70" ry="70"/>
  <rect class="fil0 str1" transform="matrix(1.32427E-14 -0.427028 0.500016 1.13097E-14 1142.97 7387.82)" width="2270" height="312" rx="70" ry="70"/>
  <rect class="fil0 str1" transform="matrix(1.32427E-14 -0.403492 0.500016 1.06863E-14 1142.97 9786.56)" width="2270" height="312" rx="70" ry="70"/>
  <rect class="fil0 str2" x="6987" y="3111" width="2642" height="661" rx="285" ry="288"/>
  <circle class="fil0 str2" cx="5924" cy="3442" r="332"/>
  <rect class="fil0 str3" x="2399" y="5839" width="11885" height="17830"/>
  <circle class="fil0 str4" cx="8250" cy="26024" r="1341"/>
  <rect class="fil0 str2" x="7831" y="25601" width="839" height="847" rx="167" ry="167"/>
 </g>
</svg>
